[
    "Arabic",
    "Dutch",
    "English (UK)",
    "English (US)",
    "French",
    "German",
    "Greek",
    "Hindi",
    "Hungariy",
    "Indonesian",
    "Italian",
    "Japanese",
    "Malayalam",
    "Punjabi",
    "Russian",
    "Spanish",
    "Tamil",
    "Telugu",
    "Urdu",
    "Kannad",
    "Marathi",
    "Asaami",
    "Farsi",
    "Bangali",
    "Gujrati"
]